[gd_scene load_steps=5 format=3 uid="uid://cgovv56xnf2ai"]

[ext_resource type="Texture2D" uid="uid://djn2jh7qxrt57" path="res://image/Prop/Decoration/24.png" id="1_4j5pm"]
[ext_resource type="Script" path="res://image/Element/box.gd" id="1_dy88r"]

[sub_resource type="RectangleShape2D" id="RectangleShape2D_kk35b"]
size = Vector2(65, 76)

[sub_resource type="RectangleShape2D" id="RectangleShape2D_d2clu"]
size = Vector2(11, 76)

[node name="Node2D" type="CharacterBody2D"]
collision_layer = 4
collision_mask = 15
platform_floor_layers = 4294967042
platform_wall_layers = 2
script = ExtResource("1_dy88r")

[node name="CollisionShape2D" type="CollisionShape2D" parent="."]
position = Vector2(0.5, 1)
shape = SubResource("RectangleShape2D_kk35b")

[node name="Sprite2D" type="Sprite2D" parent="."]
texture = ExtResource("1_4j5pm")

[node name="CollisionShape2D2" type="CollisionShape2D" parent="."]
position = Vector2(-26.5, 1)
shape = SubResource("RectangleShape2D_d2clu")
disabled = true
debug_color = Color(0.898039, 0, 0.772549, 0.419608)

[node name="CollisionShape2D3" type="CollisionShape2D" parent="."]
position = Vector2(28, 1)
shape = SubResource("RectangleShape2D_d2clu")
disabled = true
debug_color = Color(0.898039, 0, 0.772549, 0.419608)
